…
```
# A tibble: 151 × 15
   geo_value signal       source geo_type time_type time_value
   <chr>     <chr>        <chr>  <fct>    <fct>     <date>
 1 us        smoothed_cli fb-su… nation   day       2021-01-01
 2 us        smoothed_cli fb-su… nation   day       2021-01-02
 3 us        smoothed_cli fb-su… nation   day       2021-01-03
 4 us        smoothed_cli fb-su… nation   day       2021-01-04
 5 us        smoothed_cli fb-su… nation   day       2021-01-05
 6 us        smoothed_cli fb-su… nation   day       2021-01-06
 7 us        smoothed_cli fb-su… nation   day       2021-01-07
 8 us        smoothed_cli fb-su… nation   day       2021-01-08
 9 us        smoothed_cli fb-su… nation   day       2021-01-09
10 us        smoothed_cli fb-su… nation   day       2021-01-10
# ℹ 141 more rows
# ℹ 9 more variables: direction <dbl>, issue <date>,
#   lag <dbl>, missing_value <dbl>, missing_stderr <dbl>,
#   missing_sample_size <dbl>, value <dbl>, stderr <dbl>,
#   sample_size <dbl>
# ℹ Use `print(n = ...)` to see more rows
```
…
